…
Observe que, apesar de na pesquisa conseguirmos selecionar o nome da estação e do parâmetro, a requisição envia ids numéricos. No Qualar, eu encontrei apenas os ids das estações, mas os valores de ambos os parâmetros podem ser encontrados inspecionando o html da página. Para facilitar a nossa vida, eu salvei esses valores nos arquivos station_ids.csv e param_ids.csv, que podem ser baixados pelo repositório do blog no Github.

readr::read_csv("data/station_ids.csv")
## # A tibble: 62 x 3
##       id stationname                initial_date
##    <int> <chr>                      <chr>       
##  1    65 Mauá                       01/01/1998  
##  2    66 Cubatão-V.Parisi           01/01/1998  
##  3    67 Sorocaba                   01/01/1998  
##  4    73 Congonhas                  01/01/1998  
##  5    87 Cubatão-Centro             01/01/1998  
##  6    88 S.José Campos              01/01/1998  
##  7    89 Campinas-Centro            01/01/1998  
##  8    91 Cerqueira César            01/01/1998  
##  9    92 Diadema                    01/01/1998  
## 10    95 Cid.Universitária-USP-Ipen 01/01/1998  
## # ... with 52 more rows
…
